\relax 
\providecommand\babel@aux[2]{}
\@nameuse{bbl@beforestart}
\catcode `"\active 
\babel@aux{ngerman}{}
\@writefile{loa}{\contentsline {algorithm}{\numberline {1}{\ignorespaces GAN Trainingsalgorithmus für Minimax (Minibatch SGD)}}{1}{}\protected@file@percent }
\gdef \@abspage@last{1}
